<svg xmlns="http://www.w3.org/2000/svg" width="24" height="24" version="1.1">
 <defs>
  <style id="current-color-scheme" type="text/css">
   .ColorScheme-Text { color:#ebdbb2; } .ColorScheme-Highlight { color:#4285f4; }
  </style>
 </defs>
 <g transform="translate(1,1)">
  <path style="fill:currentColor" class="ColorScheme-Text" d="M 11,3 C 7.134,3 4,6.134 4,10 4,13.866 7.134,17 11,17 V 19 C 11,19 18,16 18,10 18,6.134 14.866,3 11,3 Z M 7.5,8 H 9.5 C 9.5,8 10,8 10,8.5 V 11 C 10,12.21 9,13 8.2,13 8,13 8,12.826 8,12.826 V 12.2 C 8,12.2 8,12 8.2,12 8.2,12 9,11.6 9,11 H 7.5 C 7.5,11 7,11 7,10.5 V 8.5 C 7,8.5 7,8 7.5,8 Z M 11.5,8 H 13.5 C 13.5,8 14,8 14,8.5 V 11 C 14,12.21 13,13 12.2,13 12,13 12,12.826 12,12.826 V 12.2 C 12,12.2 12,12 12.2,12 12.2,12 13,11.6 13,11 H 11.5 C 11.5,11 11,11 11,10.5 V 8.5 C 11,8.5 11,8 11.5,8 Z"/>
  <circle style="fill:currentColor" class="ColorScheme-Highlight" cx="20" cy="4" r="2"/>
 </g>
</svg>
