<svg xmlns="http://www.w3.org/2000/svg" width="16" height="16" version="1.1">
 <defs>
  <style id="current-color-scheme" type="text/css">
   .ColorScheme-Text { color:#ebdbb2; } .ColorScheme-Highlight { color:#4285f4; }
  </style>
 </defs>
 <path style="fill:currentColor" class="ColorScheme-Text" d="M 2,1 C 0.892,1 0,1.892 0,3 V 13 C 0,14.108 0.892,15 2,15 H 12 C 13.108,15 14,14.108 14,13 V 10 H 12 V 13 H 2 V 3 H 12 V 6 H 14 V 3 C 14,1.892 13.108,1 12,1 Z M 8,4 4,8 8,12 9.5,10.5 8,9 H 15 V 7 H 8 L 9.5,5.5 Z"/>
</svg>
