<svg xmlns="http://www.w3.org/2000/svg" width="16" height="16" version="1.1">
 <defs>
  <style id="current-color-scheme" type="text/css">
   .ColorScheme-Text { color:#ebdbb2; } .ColorScheme-Highlight { color:#4285f4; }
  </style>
 </defs>
 <path style="fill:currentColor" class="ColorScheme-Text" d="M 12.778,1.2222 C 12.778,1.2222 12.278,0.72224 11.778,1.2222 L 10,3 13,6 14.778,4.2222 C 15.278,3.7222 14.778,3.2222 14.778,3.2222 Z M 9,4 1,12 V 15 H 4 L 12,7 Z"/>
</svg>
