<svg xmlns="http://www.w3.org/2000/svg" width="16" height="16" version="1.1">
 <defs>
  <style id="current-color-scheme" type="text/css">
   .ColorScheme-Text { color:#ebdbb2; } .ColorScheme-Highlight { color:#4285f4; }
  </style>
 </defs>
 <path style="fill:currentColor" class="ColorScheme-Text" d="M 3.52,1 C -1.03,1 0.65,15 8,15 15.35,15 17.03,1 12.48,1 11.08,1 9.5,2.5 8,4 11,7.5 12.9,12 8,12 3.1,12 5,7.5 8,4 6.5,2.5 4.92,1 3.52,1 Z"/>
</svg>
