<svg xmlns="http://www.w3.org/2000/svg" width="16" height="16" version="1.1">
 <defs>
  <style id="current-color-scheme" type="text/css">
   .ColorScheme-Text { color:#ebdbb2; } .ColorScheme-Highlight { color:#4285f4; }
  </style>
 </defs>
 <path style="fill:currentColor" class="ColorScheme-Text" d="M 8.8457,1 5.2227,14.482 7.1543,15 10.777,1.5175 Z M 2,1 V 15 H 4 V 1 Z M 12,1 V 15 H 14 V 1 Z"/>
</svg>
