<svg xmlns="http://www.w3.org/2000/svg" width="16" height="16" version="1.1">
 <defs>
  <style id="current-color-scheme" type="text/css">
   .ColorScheme-Text { color:#ebdbb2; } .ColorScheme-Highlight { color:#4285f4; }
  </style>
 </defs>
 <path style="opacity:0.3;fill:currentColor" class="ColorScheme-Text" d="M 0,0 H 16 V 16 H 0 Z"/>
 <path style="fill:currentColor" class="ColorScheme-Text" d="M 0 0 L 4 4 L 8 0 L 0 0 z M 8 0 L 12 4 L 16 0 L 8 0 z M 12 4 L 8 8 L 12 12 L 16 8 L 12 4 z M 12 12 L 8 16 L 16 16 L 12 12 z M 8 16 L 4 12 L 0 16 L 8 16 z M 4 12 L 8 8 L 4 4 L 0 8 L 4 12 z"/>
</svg>
