<svg xmlns="http://www.w3.org/2000/svg" width="16" height="16" version="1.1">
 <defs>
  <style id="current-color-scheme" type="text/css">
   .ColorScheme-Text { color:#ebdbb2; } .ColorScheme-Highlight { color:#4285f4; }
  </style>
 </defs>
 <path style="fill:currentColor" class="ColorScheme-Text" d="M 0,7 C 4,7 5,4 8,4 11,4 11,7 16,7 V 12 C 11,12 11,9 8,9 5,9 4,12 0,12 Z"/>
</svg>
