<svg xmlns="http://www.w3.org/2000/svg" width="22" height="22" version="1">
 <rect style="opacity:0.2" width="20" height="12" x="1" y="8.5" rx="1" ry="1"/>
 <rect style="opacity:0.2" width="20" height="12" x="1" y="8.5" rx="1" ry="1"/>
 <path style="fill:#689d6a" d="m1 16c0 0.554 0.446 1 1 1h18c0.554 0 1-0.446 1-1v-11c0-0.554-0.446-1-1-1h-10v-1c0-0.554-0.446-1-1-1h-7c-0.554 0-1 0.446-1 1"/>
 <rect style="opacity:0.2" width="20" height="12" x="1" y="7.5" rx="1" ry="1"/>
 <rect style="fill:#e4e4e4" width="16" height="8" x="3" y="6" rx="1" ry="1"/>
 <rect style="fill:#8ec07c" width="20" height="12" x="1" y="8" rx="1" ry="1"/>
 <path style="fill:#ffffff;opacity:0.1" d="m2 2c-0.554 0-1 0.446-1 1v0.5c0-0.554 0.446-1 1-1h7c0.554 0 1 0.446 1 1v-0.5c0-0.554-0.446-1-1-1zm8 2v0.5h10c0.554 0 1 0.446 1 1v-0.5c0-0.554-0.446-1-1-1z"/>
 <path style="fill:#282828" d="M 7 11 A 1 1 0 0 0 6.3027 12.717 L 6.9766 13.391 C 6.4972 14.013 6.1357 14.911 6.0098 16.223 C 5.973 16.993 6.7852 16.994 6.7852 16.994 L 14.215 17.025 C 14.215 17.025 15.05 17.025 15.01 16.219 C 14.878 14.908 14.514 14.014 14.035 13.398 L 14.717 12.717 A 1 1 0 0 0 13.99 11 A 1 1 0 0 0 13.303 11.303 L 12.342 12.264 C 11.702 12.072 11.058 12.043 10.553 12.035 C 10.008 12.026 9.3301 12.05 8.6641 12.25 L 7.7168 11.303 A 1 1 0 0 0 7 11 z M 8.5 14 A 0.5 0.5 0 0 1 9 14.5 A 0.5 0.5 0 0 1 8.5 15 A 0.5 0.5 0 0 1 8 14.5 A 0.5 0.5 0 0 1 8.5 14 z M 12.5 14 A 0.5 0.5 0 0 1 13 14.5 A 0.5 0.5 0 0 1 12.5 15 A 0.5 0.5 0 0 1 12 14.5 A 0.5 0.5 0 0 1 12.5 14 z"/>
</svg>
