<svg xmlns="http://www.w3.org/2000/svg" width="22" height="22" version="1.1">
 <defs>
  <style id="current-color-scheme" type="text/css">
   .ColorScheme-Text { color:#ebdbb2; } .ColorScheme-Highlight { color:#4285f4; }
  </style>
 </defs>
 <path style="fill:currentColor" class="ColorScheme-Text" d="M 11 3 C 7.134 3 4 6.134 4 10 C 4 13.866 7.134 17 11 17 L 11 19 C 11 19 18 16 18 10 C 18 6.134 14.866 3 11 3 z M 8 9 A 1 1 0 0 1 9 10 A 1 1 0 0 1 8 11 A 1 1 0 0 1 7 10 A 1 1 0 0 1 8 9 z M 11 9 A 1 1 0 0 1 12 10 A 1 1 0 0 1 11 11 A 1 1 0 0 1 10 10 A 1 1 0 0 1 11 9 z M 14 9 A 1 1 0 0 1 15 10 A 1 1 0 0 1 14 11 A 1 1 0 0 1 13 10 A 1 1 0 0 1 14 9 z"/>
</svg>
