<svg xmlns="http://www.w3.org/2000/svg" width="48" height="48" version="1">
 <rect style="opacity:.2" width="40" height="26" x="4" y="17" rx="2" ry="2"/>
 <path style="fill:#689d6a" d="m4 34c0 1.108 0.892 2 2 2h36c1.108 0 2-0.892 2-2v-22c0-1.108-0.892-2-2-2h-20v-2c0-1.108-0.892-2-2-2h-14c-1.108 0-2 0.892-2 2"/>
 <rect style="opacity:.2" width="40" height="26" x="4" y="15" rx="2" ry="2"/>
 <rect style="fill:#e4e4e4" width="36" height="16" x="6" y="13" rx="2" ry="2"/>
 <rect style="fill:#8ec07c" width="40" height="26" x="4" y="16" rx="2" ry="2"/>
 <path style="fill:#ffffff;opacity:.1" d="m6 6c-1.108 0-2 0.892-2 2v1c0-1.108 0.892-2 2-2h14c1.108 0 2 0.892 2 2v-1c0-1.108-0.892-2-2-2zm16 4v1h20c1.108 0 2 0.892 2 2v-1c0-1.108-0.892-2-2-2z"/>
 <path style="fill:#282828" d="m17.792969 23.990234a0.80008001 0.80008001 0 0 0-0.611328 1.316407l1.435547 1.755859c-1.449157 1.302677-2.418991 3.122492-2.615235 5.167969-0.036746 0.769972 0.775391 0.769531 0.775391 0.769531h14.425781s0.835451-1.68e-4 0.794922-0.808594c-0.204754-2.0309-1.171962-3.836209-2.613281-5.130859l1.433593-1.753906a0.80008001 0.80008001 0 0 0-0.634765-1.314453 0.80008001 0.80008001 0 0 0-0.603516 0.300781l-1.492187 1.826172c-1.198382-0.706725-2.592035-1.119141-4.085938-1.119141-1.49457 0-2.891106 0.411831-4.089844 1.119141l-1.492187-1.826172a0.80008001 0.80008001 0 0 0-0.626953-0.302735z"/>
 <circle style="fill:#8ec07c" cx="20" cy="30" r="1"/>
 <circle style="fill:#8ec07c" cx="-28" cy="30" r="1" transform="scale(-1,1)"/>
</svg>
