<svg xmlns="http://www.w3.org/2000/svg" width="64" height="64" version="1.1">
 <rect style="opacity:.2" width="50" height="32" x="7" y="24" rx="2.5" ry="2.5"/>
 <path style="fill:#689d6a" d="m7 44.5c0 1.385 1.115 2.5 2.5 2.5h45c1.385 0 2.5-1.115 2.5-2.5v-27c0-1.385-1.115-2.5-2.5-2.5h-25.5v-2.5c0-1.385-1.115-2.5-2.5-2.5h-17c-1.385 0-2.5 1.115-2.5 2.5"/>
 <rect style="opacity:.2" width="50" height="32" x="7" y="22" rx="2.5" ry="2.5"/>
 <rect style="fill:#e4e4e4" width="44" height="20" x="10" y="18" rx="2.5" ry="2.5"/>
 <rect style="fill:#8ec07c" width="50" height="32" x="7" y="23" rx="2.5" ry="2.5"/>
 <path style="opacity:.1;fill:#ffffff" d="m9.5 10c-1.385 0-2.5 1.115-2.5 2.5v1c0-1.385 1.115-2.5 2.5-2.5h17c1.385 0 2.5 1.115 2.5 2.5v-1c0-1.385-1.115-2.5-2.5-2.5zm19.5 5v1h25.5c1.39 0 2.5 1.115 2.5 2.5v-1c0-1.385-1.11-2.5-2.5-2.5z"/>
 <path style="fill:#282828" d="m32.414062 29.007812c-0.847796-0.03587-1.710894 0.03684-2.570312 0.226563-4.577161 1.010464-7.843948 5.079982-7.84375 9.765625h-2l3 3 3-3h-2c-0.000215-3.758774 2.603582-7.001904 6.275391-7.8125 3.676934-0.811728 7.4098 1.040338 8.988281 4.458984 1.578481 3.418647 0.566976 7.460066-2.435547 9.732422-3.002523 2.272357-7.167978 2.146994-10.029297-0.300781-1.014322-0.865885-2.31315 0.655599-1.298828 1.521484 3.566836 3.051324 8.7923 3.207653 12.535156 0.375 3.742857-2.832652 5.010657-7.904431 3.042969-12.166015-1.475766-3.196189-4.479132-5.302245-7.822266-5.728516-0.278594-0.03552-0.559197-0.0603-0.841797-0.07227zm-0.429687 3.978516a1.0001 1.0001 0 0 0 -0.984375 1.013672v4.863281a1.0001 1.0001 0 0 0 0.04102 0.433594 1.0001 1.0001 0 0 0 0.02734 0.07422 1.0001 1.0001 0 0 0 0.208985 0.332031l2.921875 3.896484a1.0003905 1.0003905 0 0 0 1.601562 -1.199218l-2.800782-3.734376v-4.666016a1.0001 1.0001 0 0 0 -1.015625 -1.013672z"/>
</svg>
