<svg xmlns="http://www.w3.org/2000/svg" width="22" height="22" version="1.1">
 <defs>
  <style id="current-color-scheme" type="text/css">
   .ColorScheme-Text { color:#ebdbb2; } .ColorScheme-Highlight { color:#4285f4; }
  </style>
 </defs>
 <g transform="translate(3,3)">
  <path style="fill:currentColor" class="ColorScheme-Text" d="M 1,1 V 8 H 15 V 1 Z M 1,9 V 13 H 4 V 9 Z M 6,9 V 15 H 9 V 9 Z M 11,9 V 12 H 15 V 9 Z"/>
 </g>
</svg>
