<svg xmlns="http://www.w3.org/2000/svg" width="22" height="22" version="1.1">
 <defs>
  <style id="current-color-scheme" type="text/css">
   .ColorScheme-Text { color:#ebdbb2; } .ColorScheme-Highlight { color:#4285f4; }
  </style>
 </defs>
 <g transform="translate(3,3)">
  <path style="fill:currentColor" class="ColorScheme-Text" d="M 2,1 V 5 L 5,3 Z M 14,1 11,3 14,5 Z M 5,5 V 7 H 1 V 13 H 5 V 15 H 7 V 5 Z M 9,5 V 15 H 11 V 13 H 15 V 7 H 11 V 5 Z"/>
 </g>
</svg>
