<svg xmlns="http://www.w3.org/2000/svg" width="22" height="22" version="1.1">
 <defs>
  <style id="current-color-scheme" type="text/css">
   .ColorScheme-Text { color:#ebdbb2; } .ColorScheme-Highlight { color:#4285f4; }
  </style>
 </defs>
 <g transform="translate(3,3)">
  <path style="fill:currentColor" class="ColorScheme-Text" d="M 1,1 V 15 H 12 L 15,12 V 1 Z M 3,3 H 13 V 13 H 3 Z M 4,4 V 7 H 12 V 4 Z M 4,9 V 12 H 12 V 9 Z"/>
 </g>
</svg>
