<svg xmlns="http://www.w3.org/2000/svg" width="22" height="22" version="1.1">
 <defs>
  <style id="current-color-scheme" type="text/css">
   .ColorScheme-Text { color:#ebdbb2; } .ColorScheme-Highlight { color:#4285f4; }
  </style>
 </defs>
 <g transform="translate(3,3)">
  <path style="fill:currentColor" class="ColorScheme-Text" d="M 13,9 A 2,2 0 0 0 11,11 2,2 0 0 0 13,13 2,2 0 0 0 15,11 2,2 0 0 0 13,9 Z M 2,2 C 0,2 0,4 0,4 V 12 C 0,12 0,14 2,14 H 13 A 3,3 0 0 1 10,11 3,3 0 0 1 13,8 3,3 0 0 1 16,11 V 4 C 16,4 16,2 14,2 Z M 2,4 8,7 14,4 V 6 L 8,9 2,6 Z"/>
 </g>
</svg>
