<svg xmlns="http://www.w3.org/2000/svg" width="20" height="20" version="1.1">
 <defs>
  <style id="current-color-scheme" type="text/css">
   .ColorScheme-Text { color:#ebdbb2; } .ColorScheme-Highlight { color:#4285f4; }
  </style>
 </defs>
 <path style="fill:currentColor" class="ColorScheme-Text" d="M 3,3 H 17 V 17 H 3 Z M 1,1 V 19 H 19 V 1 Z M 2,2 H 18 V 18 H 2 Z"/>
</svg>
