<svg xmlns="http://www.w3.org/2000/svg" width="22" height="22" version="1.1">
 <defs>
  <style id="current-color-scheme" type="text/css">
   .ColorScheme-Text { color:#ebdbb2; } .ColorScheme-Highlight { color:#4285f4; }
  </style>
 </defs>
 <g transform="translate(3,3)">
  <path style="fill:currentColor" class="ColorScheme-Text" d="M 0,1 V 15 H 16 V 1 Z M 6,3 V 10 H 1 V 3 Z M 9,3 H 15 V 4 H 9 Z M 9,6 H 15 V 7 H 9 Z M 9,9 H 15 V 10 H 9 Z M 1,12 H 15 V 13 H 1 Z"/>
 </g>
</svg>
