<svg xmlns="http://www.w3.org/2000/svg" width="24" height="24" version="1.1">
 <defs>
  <style id="current-color-scheme" type="text/css">
   .ColorScheme-Text { color:#ebdbb2; } .ColorScheme-Highlight { color:#4285f4; }
  </style>
 </defs>
 <g transform="translate(4,4)">
  <path style="fill:currentColor" class="ColorScheme-Text" d="M 3,1 V 2.5 H 1 V 4.5 H 3 V 6 H 7 V 4.5 H 9 V 6 H 13 V 4.5 H 15 V 2.5 H 13 V 1 H 9 V 2.5 H 7 V 1 Z M 3,10 V 11.5 H 1 V 13.5 H 3 V 15 H 7 V 13.5 H 9 V 15 H 13 V 13.5 H 15 V 11.5 H 13 V 10 H 9 V 11.5 H 7 V 10 Z"/>
 </g>
</svg>
