<svg xmlns="http://www.w3.org/2000/svg" width="24" height="24" version="1.1">
 <defs>
  <style id="current-color-scheme" type="text/css">
   .ColorScheme-Text { color:#ebdbb2; } .ColorScheme-Highlight { color:#4285f4; }
  </style>
 </defs>
 <g transform="translate(4,4)">
  <path style="fill:currentColor" class="ColorScheme-Text" d="M 10.789,1 C 9.847,1 8.9676,1.4336 8.377,2.1895 L 2.6934,9.4629 C 2.1727,10.129 1.9347,10.966 2.0215,11.818 2.1083,12.671 2.5109,13.437 3.1543,13.977 L 3.5234,14.287 C 4.0722,14.747 4.7625,15 5.4687,15 5.5778,15 5.6884,14.994 5.7969,14.982 6.615,14.893 7.3518,14.48 7.8691,13.824 7.8709,13.822 7.8716,13.821 11.703,8.918 12.386,8.0445 12.255,6.7596 11.412,6.0527 L 11.219,5.8906 C 10.87,5.5985 10.431,5.4375 9.9824,5.4375 9.3843,5.4375 8.8261,5.7115 8.4512,6.1914 L 4.623,11.09 C 4.373,11.41 4.4214,11.882 4.7305,12.141 4.8584,12.248 5.0193,12.307 5.1836,12.307 5.4025,12.307 5.6065,12.205 5.7441,12.029 L 9.5723,7.1309 C 9.6724,7.0028 9.8206,6.9297 9.9805,6.9297 10.102,6.9297 10.216,6.9717 10.311,7.0508 L 10.504,7.2129 C 10.613,7.3041 10.681,7.4353 10.695,7.5801 10.71,7.7248 10.67,7.8658 10.582,7.9785 L 6.7598,12.871 C 6.4441,13.275 5.9743,13.506 5.4707,13.506 5.0931,13.506 4.723,13.371 4.4297,13.125 L 4.0605,12.816 C 3.7166,12.528 3.5014,12.118 3.4551,11.662 3.4087,11.206 3.5361,10.759 3.8145,10.402 L 9.498,3.1289 C 9.8137,2.725 10.283,2.4922 10.787,2.4922 11.165,2.4922 11.535,2.6272 11.828,2.873 L 12.197,3.1836 C 12.907,3.7787 13.018,4.8603 12.443,5.5957 12.322,5.7508 12.267,5.9461 12.287,6.1445 12.307,6.3429 12.401,6.5211 12.551,6.6465 12.679,6.7537 12.84,6.8125 13.004,6.8125 13.223,6.8125 13.427,6.7132 13.564,6.5371 14.084,5.8718 14.323,5.0351 14.236,4.1816 14.149,3.3282 13.748,2.5618 13.105,2.0234 L 12.736,1.7129 C 12.187,1.2529 11.495,1 10.789,1 Z"/>
 </g>
</svg>
