<svg xmlns="http://www.w3.org/2000/svg" width="24" height="24" version="1.1">
 <defs>
  <style id="current-color-scheme" type="text/css">
   .ColorScheme-Text { color:#ebdbb2; } .ColorScheme-Highlight { color:#4285f4; }
  </style>
 </defs>
 <g transform="translate(4,4)">
  <path style="fill:currentColor" class="ColorScheme-Text" d="M 5,1 1,5 H 3 V 10 H 7 V 5 H 9 Z M 9,6 V 11 H 7 L 11,15 15,11 H 13 V 6 Z"/>
 </g>
</svg>
