<svg xmlns="http://www.w3.org/2000/svg" width="24" height="24" version="1.1">
 <defs>
  <style id="current-color-scheme" type="text/css">
   .ColorScheme-Text { color:#ebdbb2; } .ColorScheme-Highlight { color:#4285f4; }
  </style>
 </defs>
 <g transform="translate(4,4)">
  <path style="fill:currentColor" class="ColorScheme-Text" d="M 14,12 V 14 H 16 V 12 Z M 14,7 V 11 H 16 V 7 Z M 2,2 C 0,2 0,4 0,4 V 12 C 0,12 0,14 2,14 H 13 V 7 C 13,6.7632 13.094,6.5557 13.23,6.3848 L 8,9 2,6 V 4 L 8,7 14,4 V 6 H 16 V 4 C 16,4 16,2 14,2 Z"/>
 </g>
</svg>
