<svg xmlns="http://www.w3.org/2000/svg" width="24" height="24" version="1.1">
 <defs>
  <style id="current-color-scheme" type="text/css">
   .ColorScheme-Text { color:#ebdbb2; } .ColorScheme-Highlight { color:#4285f4; }
  </style>
 </defs>
 <g transform="translate(4,4)">
  <path style="opacity:0.3;fill:currentColor" class="ColorScheme-Text" d="M 8,0 C 8,0 11,0 11,3 V 8 C 11,11 8,11 8,11 8,11 5,11 5,8 V 3 C 5,0 8,0 8,0 Z M 2,7 V 8 C 2,13.5 7,14 7,14 V 16 H 9 V 14 C 9,14 14,13.5 14,8 V 7 H 12 V 8 C 12,12 8,12 8,12 8,12 4,12 4,8 V 7 Z"/>
 </g>
</svg>
