<svg xmlns="http://www.w3.org/2000/svg" width="24" height="24" version="1.1">
 <defs>
  <style id="current-color-scheme" type="text/css">
   .ColorScheme-Text { color:#ebdbb2; } .ColorScheme-Highlight { color:#4285f4; }
  </style>
 </defs>
 <path style="opacity:0.3;fill:currentColor" class="ColorScheme-Text" d="M 10,10 H 23 V 23 H 10 Z M 17,10 A 7,7 0 0 1 10,17 7,7 0 0 1 3,10 7,7 0 0 1 10,3 7,7 0 0 1 17,10 Z"/>
 <path style="fill:currentColor" class="ColorScheme-Text" d="M 10,1 A 9,9 0 0 0 1,10 9,9 0 0 0 10,19 V 16 A 6,6 0 0 1 4,10 6,6 0 0 1 10,4 6,6 0 0 1 16,10 H 19 A 9,9 0 0 0 10,1 Z"/>
 <path style="fill:currentColor" class="ColorScheme-Text" d="M 8,10 V 23 H 10 V 10 H 23 V 8 H 10 C 10,8 8,8 8,10 Z"/>
</svg>
