<svg xmlns="http://www.w3.org/2000/svg" width="24" height="24" version="1.1">
 <defs>
  <style id="current-color-scheme" type="text/css">
   .ColorScheme-Text { color:#ebdbb2; } .ColorScheme-Highlight { color:#4285f4; }
  </style>
 </defs>
 <g transform="translate(4,4)">
  <path style="fill:currentColor" class="ColorScheme-Text" d="M 7,7 V 8 H 6 V 9 H 7 V 10 H 8 V 9 H 9 V 8 H 8 V 7 Z M 14,7 H 15 V 10 H 14 Z M 0,7 H 1 V 10 H 0 Z M 6,15 H 9 V 16 H 6 Z M 6,1 H 9 V 2 H 6 Z M 0,16 V 12 H 1 V 15 H 4 V 16 Z M 15,16 V 12 H 14 V 15 H 11 V 16 Z M 15,1 V 5 H 14 V 2 H 11 V 1 Z M 0,1 V 5 H 1 V 2 H 4 V 1 Z"/>
 </g>
</svg>
