<svg xmlns="http://www.w3.org/2000/svg" width="24" height="24" version="1.1">
 <defs>
  <style id="current-color-scheme" type="text/css">
   .ColorScheme-Text { color:#ebdbb2; } .ColorScheme-Highlight { color:#4285f4; }
  </style>
 </defs>
 <g transform="translate(4,4)">
  <path style="fill:currentColor" class="ColorScheme-Text" d="M 5,8 V 14 L 1,11 Z M 11,1 14,5 H 8 Z M 0,6 H 1 V 16 H 0 Z M 6,0 H 16 V 1 H 6 Z M 0,0 V 4 H 1 V 1 H 4 V 0 Z"/>
 </g>
</svg>
