<svg xmlns="http://www.w3.org/2000/svg" width="24" height="24" version="1.1">
 <defs>
  <style id="current-color-scheme" type="text/css">
   .ColorScheme-Text { color:#ebdbb2; } .ColorScheme-Highlight { color:#4285f4; }
  </style>
 </defs>
 <g transform="translate(4,4)">
  <path style="opacity:0.3;fill:currentColor" class="ColorScheme-Text" d="M 9,2 A 1,1 0 0 1 8,3 1,1 0 0 1 7,2 1,1 0 0 1 8,1 1,1 0 0 1 9,2 Z M 8,0 C 8,0 6,0 6,2 H 2 C 2,2 1,2 1,3 V 14 C 1,15 2,15 2,15 H 10 V 12 H 4 V 11 H 10 V 10 H 15 V 3 C 15,2 14,2 14,2 H 10 C 10,0 8,0 8,0 Z M 4,5 H 12 V 6 H 4 Z M 4,8 H 12 V 9 H 4 Z"/>
  <path style="fill:currentColor" class="ColorScheme-Text" d="M 11,11 V 12 C 11,12.28 11.1,12.54 11.28,12.72 L 12.06,13.5 11.28,14.28 C 11.1,14.46 11,14.72 11,15 V 16 H 12 C 12.28,16 12.54,15.9 12.72,15.72 L 13.5,14.94 14.28,15.72 C 14.46,15.9 14.72,16 15,16 H 16 V 15 C 16,14.72 15.9,14.46 15.72,14.28 L 14.94,13.5 15.72,12.72 C 15.9,12.54 16,12.28 16,12 V 11 H 15 C 14.72,11 14.46,11.1 14.28,11.28 L 13.5,12.06 12.72,11.28 C 12.54,11.1 12.28,11 12,11 Z"/>
 </g>
</svg>
