<svg xmlns="http://www.w3.org/2000/svg" width="24" height="24" version="1.1">
 <defs>
  <style id="current-color-scheme" type="text/css">
   .ColorScheme-Text { color:#ebdbb2; } .ColorScheme-Highlight { color:#4285f4; }
  </style>
 </defs>
 <g transform="translate(4,4)">
  <path style="fill:currentColor" class="ColorScheme-Text" d="M 8,1 A 7,7 0 0 0 1,8 7,7 0 0 0 8,15 7,7 0 0 0 15,8 7,7 0 0 0 8,1 Z M 5,5 A 1,1 0 0 1 6,6 1,1 0 0 1 5,7 1,1 0 0 1 4,6 1,1 0 0 1 5,5 Z M 11,5 A 1,1 0 0 1 12,6 1,1 0 0 1 11,7 1,1 0 0 1 10,6 1,1 0 0 1 11,5 Z M 8,10 C 10.5,10 12,12 12,12 H 4 C 4,12 5.5,10 8,10 Z"/>
 </g>
</svg>
