<svg xmlns="http://www.w3.org/2000/svg" width="24" height="24" version="1.1">
 <defs>
  <style id="current-color-scheme" type="text/css">
   .ColorScheme-Text { color:#ebdbb2; } .ColorScheme-Highlight { color:#4285f4; }
  </style>
 </defs>
 <g transform="translate(4,4)">
  <path style="fill:currentColor" class="ColorScheme-Text" d="M 3,1 C 1,1 1,3 1,3 V 9 H 3 V 6 H 7 V 4 H 3 V 3 H 13 V 7 H 7 V 9 H 15 V 3 C 15,3 15,1 13,1 Z M 1.8,10 C 1,10 1,10.8 1,10.8 V 16 H 7 V 10.8 C 7,10.8 7,10 6.2,10 Z M 12,10 V 12 H 10 V 14 H 12 V 16 H 14 V 14 H 16 V 12 H 14 V 10 Z"/>
 </g>
</svg>
