<svg xmlns="http://www.w3.org/2000/svg" width="24" height="24" version="1.1">
 <defs>
  <style id="current-color-scheme" type="text/css">
   .ColorScheme-Text { color:#ebdbb2; } .ColorScheme-Highlight { color:#4285f4; }
  </style>
 </defs>
 <g transform="translate(4,4)">
  <path style="fill:currentColor" class="ColorScheme-Text" d="M 3,2 C 2,2 2,3 2,3 V 13 C 2,13 2,14 3,14 H 13 C 14,14 14,13 14,13 V 3 C 14,3 14,2 13,2 Z M 5,7 H 11 V 9 H 5 Z"/>
 </g>
</svg>
