<svg xmlns="http://www.w3.org/2000/svg" width="16" height="16" version="1.1">
 <path style="opacity:0.3;fill:#ebdbb2" d="M 6,1 V 2 H 3 V 14 C 3,14.55 3.446,15 4,15 H 12 C 12.554,15 13,14.55 13,14 V 2 H 10 V 1 Z M 8,5 V 8 H 11 L 8,13 V 10 H 5 Z"/>
 <path style="fill:#ebdbb2" d="M 3 5 L 3 14 C 3 14.55 3.446 15 4 15 L 12 15 C 12.554 15 13 14.55 13 14 L 13 5 L 8 5 L 8 8 L 11 8 L 8 13 L 8 10 L 5 10 L 8 5 L 3 5 z"/>
</svg>
